module gitlab.com/test/post_service

go 1.17

require (
	github.com/golang-migrate/migrate/v4 v4.15.1
	github.com/golang/protobuf v1.5.2
	github.com/jmoiron/sqlx v1.3.1
	github.com/joho/godotenv v1.4.0
	github.com/lib/pq v1.10.4
	github.com/spf13/cast v1.3.0
	github.com/stretchr/testify v1.7.0
	go.uber.org/zap v1.10.0
	google.golang.org/grpc v1.41.0
)

require (
	github.com/davecgh/go-spew v1.1.1 // indirect
	github.com/hashicorp/errwrap v1.0.0 // indirect
	github.com/hashicorp/go-multierror v1.1.0 // indirect
	github.com/pmezard/go-difflib v1.0.0 // indirect
	go.uber.org/atomic v1.6.0 // indirect
	go.uber.org/multierr v1.5.0 // indirect
	golang.org/x/net v0.0.0-20211013171255-e13a2654a71e // indirect
	golang.org/x/sys v0.0.0-20211013075003-97ac67df715c // indirect
	golang.org/x/text v0.3.7 // indirect
	google.golang.org/genproto v0.0.0-20211013025323-ce878158c4d4 // indirect
	google.golang.org/protobuf v1.27.1 // indirect
	gopkg.in/yaml.v3 v3.0.0-20200313102051-9f266ea9e77c // indirect
)
